\contentsline {section}{\numberline {1}Installation}{2}
\contentsline {section}{\numberline {2}Introduction}{2}
\contentsline {section}{\numberline {3}Assembling networks}{2}
\contentsline {subsection}{\numberline {3.1}Boolean operators}{2}
\contentsline {subsection}{\numberline {3.2}Boolean inputs}{3}
